-------------------------------------------------------------------------------
Test set: com.waracle.cakemgr.CakeManagerTest
-------------------------------------------------------------------------------
Tests run: 1, Failures: 0, Errors: 0, Skipped: 1, Time elapsed: 0.001 sec - in com.waracle.cakemgr.CakeManagerTest
